-- Merging decision tree log ---
manifest
ADDED from C:\Users\NARSIMHA BALU\Desktop\AndroidBK\Avantari\app\src\main\AndroidManifest.xml:2:1-20:12
	package
		ADDED from C:\Users\NARSIMHA BALU\Desktop\AndroidBK\Avantari\app\src\main\AndroidManifest.xml:3:5-34
		INJECTED from C:\Users\NARSIMHA BALU\Desktop\AndroidBK\Avantari\app\src\main\AndroidManifest.xml
		INJECTED from C:\Users\NARSIMHA BALU\Desktop\AndroidBK\Avantari\app\src\main\AndroidManifest.xml
	android:versionName
		INJECTED from C:\Users\NARSIMHA BALU\Desktop\AndroidBK\Avantari\app\src\main\AndroidManifest.xml
		INJECTED from C:\Users\NARSIMHA BALU\Desktop\AndroidBK\Avantari\app\src\main\AndroidManifest.xml
	xmlns:android
		ADDED from C:\Users\NARSIMHA BALU\Desktop\AndroidBK\Avantari\app\src\main\AndroidManifest.xml:2:11-69
	android:versionCode
		INJECTED from C:\Users\NARSIMHA BALU\Desktop\AndroidBK\Avantari\app\src\main\AndroidManifest.xml
		INJECTED from C:\Users\NARSIMHA BALU\Desktop\AndroidBK\Avantari\app\src\main\AndroidManifest.xml
application
ADDED from C:\Users\NARSIMHA BALU\Desktop\AndroidBK\Avantari\app\src\main\AndroidManifest.xml:5:5-18:19
MERGED from [com.android.support:design:25.1.0] C:\Users\NARSIMHA BALU\Desktop\AndroidBK\Avantari\app\build\intermediates\exploded-aar\com.android.support\design\25.1.0\AndroidManifest.xml:25:5-20
MERGED from [com.android.support:transition:25.1.0] C:\Users\NARSIMHA BALU\Desktop\AndroidBK\Avantari\app\build\intermediates\exploded-aar\com.android.support\transition\25.1.0\AndroidManifest.xml:22:5-20
MERGED from [com.gelitenight.waveview:waveview:1.0.0] C:\Users\NARSIMHA BALU\Desktop\AndroidBK\Avantari\app\build\intermediates\exploded-aar\com.gelitenight.waveview\waveview\1.0.0\AndroidManifest.xml:11:5-14:19
MERGED from [com.android.support:appcompat-v7:25.1.0] C:\Users\NARSIMHA BALU\Desktop\AndroidBK\Avantari\app\build\intermediates\exploded-aar\com.android.support\appcompat-v7\25.1.0\AndroidManifest.xml:25:5-20
MERGED from [com.android.support:support-v4:25.1.0] C:\Users\NARSIMHA BALU\Desktop\AndroidBK\Avantari\app\build\intermediates\exploded-aar\com.android.support\support-v4\25.1.0\AndroidManifest.xml:25:5-20
MERGED from [com.android.support:support-fragment:25.1.0] C:\Users\NARSIMHA BALU\Desktop\AndroidBK\Avantari\app\build\intermediates\exploded-aar\com.android.support\support-fragment\25.1.0\AndroidManifest.xml:25:5-20
MERGED from [com.android.support:support-media-compat:25.1.0] C:\Users\NARSIMHA BALU\Desktop\AndroidBK\Avantari\app\build\intermediates\exploded-aar\com.android.support\support-media-compat\25.1.0\AndroidManifest.xml:25:5-20
MERGED from [com.android.support:support-core-ui:25.1.0] C:\Users\NARSIMHA BALU\Desktop\AndroidBK\Avantari\app\build\intermediates\exploded-aar\com.android.support\support-core-ui\25.1.0\AndroidManifest.xml:25:5-20
MERGED from [com.android.support:support-core-utils:25.1.0] C:\Users\NARSIMHA BALU\Desktop\AndroidBK\Avantari\app\build\intermediates\exploded-aar\com.android.support\support-core-utils\25.1.0\AndroidManifest.xml:25:5-20
MERGED from [com.android.support:animated-vector-drawable:25.1.0] C:\Users\NARSIMHA BALU\Desktop\AndroidBK\Avantari\app\build\intermediates\exploded-aar\com.android.support\animated-vector-drawable\25.1.0\AndroidManifest.xml:22:5-20
MERGED from [com.android.support:support-vector-drawable:25.1.0] C:\Users\NARSIMHA BALU\Desktop\AndroidBK\Avantari\app\build\intermediates\exploded-aar\com.android.support\support-vector-drawable\25.1.0\AndroidManifest.xml:23:5-20
MERGED from [com.android.support:support-compat:25.1.0] C:\Users\NARSIMHA BALU\Desktop\AndroidBK\Avantari\app\build\intermediates\exploded-aar\com.android.support\support-compat\25.1.0\AndroidManifest.xml:25:5-20
	android:label
		ADDED from C:\Users\NARSIMHA BALU\Desktop\AndroidBK\Avantari\app\src\main\AndroidManifest.xml:8:9-41
	android:supportsRtl
		ADDED from C:\Users\NARSIMHA BALU\Desktop\AndroidBK\Avantari\app\src\main\AndroidManifest.xml:9:9-35
	android:allowBackup
		ADDED from C:\Users\NARSIMHA BALU\Desktop\AndroidBK\Avantari\app\src\main\AndroidManifest.xml:6:9-35
	android:icon
		ADDED from C:\Users\NARSIMHA BALU\Desktop\AndroidBK\Avantari\app\src\main\AndroidManifest.xml:7:9-43
	android:theme
		ADDED from C:\Users\NARSIMHA BALU\Desktop\AndroidBK\Avantari\app\src\main\AndroidManifest.xml:10:9-40
activity#com.nosort.avantari.MainActivity
ADDED from C:\Users\NARSIMHA BALU\Desktop\AndroidBK\Avantari\app\src\main\AndroidManifest.xml:11:9-17:20
	android:name
		ADDED from C:\Users\NARSIMHA BALU\Desktop\AndroidBK\Avantari\app\src\main\AndroidManifest.xml:11:19-47
intent-filter#android.intent.action.MAIN+android.intent.category.LAUNCHER
ADDED from C:\Users\NARSIMHA BALU\Desktop\AndroidBK\Avantari\app\src\main\AndroidManifest.xml:12:13-16:29
action#android.intent.action.MAIN
ADDED from C:\Users\NARSIMHA BALU\Desktop\AndroidBK\Avantari\app\src\main\AndroidManifest.xml:13:17-69
	android:name
		ADDED from C:\Users\NARSIMHA BALU\Desktop\AndroidBK\Avantari\app\src\main\AndroidManifest.xml:13:25-66
category#android.intent.category.LAUNCHER
ADDED from C:\Users\NARSIMHA BALU\Desktop\AndroidBK\Avantari\app\src\main\AndroidManifest.xml:15:17-77
	android:name
		ADDED from C:\Users\NARSIMHA BALU\Desktop\AndroidBK\Avantari\app\src\main\AndroidManifest.xml:15:27-74
uses-sdk
INJECTED from C:\Users\NARSIMHA BALU\Desktop\AndroidBK\Avantari\app\src\main\AndroidManifest.xml reason: use-sdk injection requested
MERGED from [com.android.support:design:25.1.0] C:\Users\NARSIMHA BALU\Desktop\AndroidBK\Avantari\app\build\intermediates\exploded-aar\com.android.support\design\25.1.0\AndroidManifest.xml:21:5-23:62
MERGED from [com.android.support:recyclerview-v7:25.1.0] C:\Users\NARSIMHA BALU\Desktop\AndroidBK\Avantari\app\build\intermediates\exploded-aar\com.android.support\recyclerview-v7\25.1.0\AndroidManifest.xml:20:5-43
MERGED from [com.android.support:transition:25.1.0] C:\Users\NARSIMHA BALU\Desktop\AndroidBK\Avantari\app\build\intermediates\exploded-aar\com.android.support\transition\25.1.0\AndroidManifest.xml:20:5-44
MERGED from [com.gelitenight.waveview:waveview:1.0.0] C:\Users\NARSIMHA BALU\Desktop\AndroidBK\Avantari\app\build\intermediates\exploded-aar\com.gelitenight.waveview\waveview\1.0.0\AndroidManifest.xml:7:5-9:41
MERGED from [com.android.support:appcompat-v7:25.1.0] C:\Users\NARSIMHA BALU\Desktop\AndroidBK\Avantari\app\build\intermediates\exploded-aar\com.android.support\appcompat-v7\25.1.0\AndroidManifest.xml:21:5-23:78
MERGED from [com.android.support:support-v4:25.1.0] C:\Users\NARSIMHA BALU\Desktop\AndroidBK\Avantari\app\build\intermediates\exploded-aar\com.android.support\support-v4\25.1.0\AndroidManifest.xml:21:5-23:54
MERGED from [com.android.support:support-fragment:25.1.0] C:\Users\NARSIMHA BALU\Desktop\AndroidBK\Avantari\app\build\intermediates\exploded-aar\com.android.support\support-fragment\25.1.0\AndroidManifest.xml:21:5-23:60
MERGED from [com.android.support:support-media-compat:25.1.0] C:\Users\NARSIMHA BALU\Desktop\AndroidBK\Avantari\app\build\intermediates\exploded-aar\com.android.support\support-media-compat\25.1.0\AndroidManifest.xml:21:5-23:63
MERGED from [com.android.support:support-core-ui:25.1.0] C:\Users\NARSIMHA BALU\Desktop\AndroidBK\Avantari\app\build\intermediates\exploded-aar\com.android.support\support-core-ui\25.1.0\AndroidManifest.xml:21:5-23:58
MERGED from [com.android.support:support-core-utils:25.1.0] C:\Users\NARSIMHA BALU\Desktop\AndroidBK\Avantari\app\build\intermediates\exploded-aar\com.android.support\support-core-utils\25.1.0\AndroidManifest.xml:21:5-23:61
MERGED from [com.android.support:animated-vector-drawable:25.1.0] C:\Users\NARSIMHA BALU\Desktop\AndroidBK\Avantari\app\build\intermediates\exploded-aar\com.android.support\animated-vector-drawable\25.1.0\AndroidManifest.xml:20:5-44
MERGED from [com.android.support:support-vector-drawable:25.1.0] C:\Users\NARSIMHA BALU\Desktop\AndroidBK\Avantari\app\build\intermediates\exploded-aar\com.android.support\support-vector-drawable\25.1.0\AndroidManifest.xml:21:5-43
MERGED from [com.android.support:support-compat:25.1.0] C:\Users\NARSIMHA BALU\Desktop\AndroidBK\Avantari\app\build\intermediates\exploded-aar\com.android.support\support-compat\25.1.0\AndroidManifest.xml:21:5-23:58
	tools:overrideLibrary
		ADDED from [com.android.support:design:25.1.0] C:\Users\NARSIMHA BALU\Desktop\AndroidBK\Avantari\app\build\intermediates\exploded-aar\com.android.support\design\25.1.0\AndroidManifest.xml:23:9-59
	android:targetSdkVersion
		INJECTED from C:\Users\NARSIMHA BALU\Desktop\AndroidBK\Avantari\app\src\main\AndroidManifest.xml
		INJECTED from C:\Users\NARSIMHA BALU\Desktop\AndroidBK\Avantari\app\src\main\AndroidManifest.xml
	android:minSdkVersion
		INJECTED from C:\Users\NARSIMHA BALU\Desktop\AndroidBK\Avantari\app\src\main\AndroidManifest.xml
		INJECTED from C:\Users\NARSIMHA BALU\Desktop\AndroidBK\Avantari\app\src\main\AndroidManifest.xml
